<svg xmlns="http://www.w3.org/2000/svg" width="12" height="8.4" viewBox="0 0 12 8.4">
  <path id="Polygon_1" data-name="Polygon 1" d="M6,0l6,8.4H0Z" transform="translate(12 8.4) rotate(180)" fill="#cccaca"/>
</svg>
